Caderno de R
…
7) O que ocorre se voce repetir uma variavel multiplas vezes em uma instrucao select?

A variavel eh selecionada apenas uma vez:

nycflights13::flights %>%
  select(flight, flight)

# A tibble: 336,776 × 1
   flight
    <int>
 1   1545
 2   1714
 3   1141
 4    725
 5    461
 6   1696
 7    507
 8   5708
 9     79
10    301
# ℹ 336,766 more rows
…
# A tibble: 5 × 6
  flight  year month   day dep_delay arr_delay
   <int> <int> <int> <int>     <dbl>     <dbl>
1   1545  2013     1     1         2        11
2   1714  2013     1     1         4        20
3   1141  2013     1     1         2        33
4    725  2013     1     1        -1       -18
5    461  2013     1     1        -6       -25

9) Como o resultado da execucao do codigo abaixo o surpreendeu? Como podes alterar o padrao da caixa alta e baixa?

select(nycflights13::flights, contains("TIME"))

# A tibble: 336,776 × 6
   dep_time sched_dep_time arr_time sched_arr_time air_time time_hour          
      <int>          <int>    <int>          <int>    <dbl> <dttm>             
 1      517            515      830            819      227 2013-01-01 05:00:00
 2      533            529      850            830      227 2013-01-01 05:00:00
 3      542            540      923            850      160 2013-01-01 05:00:00
 4      544            545     1004           1022      183 2013-01-01 05:00:00
 5      554            600      812            837      116 2013-01-01 06:00:00
 6      554            558      740            728      150 2013-01-01 05:00:00
 7      555            600      913            854      158 2013-01-01 06:00:00
 8      557            600      709            723       53 2013-01-01 06:00:00
 9      557            600      838            846      140 2013-01-01 06:00:00
10      558            600      753            745      138 2013-01-01 06:00:00
# ℹ 336,766 more rows
…
4) Como obteria os retornos mensais no ambiente tidyverse a partir dos log-retornos diarios?

Podemos fazer algo semelhante ao abaixo:

assets_daily_returns_long %>%
  mutate(year_month = format(date, "%Y-%m")) %>%
  group_by(year_month, asset) %>%
  select(-date) %>%
  summarise(returns = sum(returns, na.rm = TRUE))

`summarise()` has grouped output by 'year_month'. You can override using the
`.groups` argument.

# A tibble: 300 × 3
# Groups:   year_month [60]
   year_month asset  returns
   <chr>      <chr>    <dbl>
 1 2013-01    AGG   -0.00623
 2 2013-01    EEM   -0.00294
 3 2013-01    EFA    0.0366 
 4 2013-01    IJS    0.0521 
 5 2013-01    SPY    0.0499 
 6 2013-02    AGG    0.00589
 7 2013-02    EEM   -0.0231 
 8 2013-02    EFA   -0.0130 
 9 2013-02    IJS    0.0162 
10 2013-02    SPY    0.0127 
# ℹ 290 more rows
…
